<?xml version="1.0" encoding="UTF-8" standalone="no"?>
<!-- Created with Inkscape (http://www.inkscape.org/) -->

<svg
   xmlns:dc="http://purl.org/dc/elements/1.1/"
   xmlns:cc="http://creativecommons.org/ns#"
   xmlns:rdf="http://www.w3.org/1999/02/22-rdf-syntax-ns#"
   xmlns:svg="http://www.w3.org/2000/svg"
   xmlns="http://www.w3.org/2000/svg"
   xmlns:sodipodi="http://sodipodi.sourceforge.net/DTD/sodipodi-0.dtd"
   xmlns:inkscape="http://www.inkscape.org/namespaces/inkscape"
   width="702.85712"
   height="774.28571"
   id="svg2"
   sodipodi:version="0.32"
   inkscape:version="0.48.3.1 r9886"
   sodipodi:docname="euro-black.svg"
   version="1.0"
   inkscape:output_extension="org.inkscape.output.svg.inkscape"
   inkscape:export-filename="/home/prod402/ivan/euro.png"
   inkscape:export-xdpi="16.389299"
   inkscape:export-ydpi="16.389299">
  <defs
     id="defs4">
    <linearGradient
       id="linearGradient3175">
      <stop
         style="stop-color:#ffd42a;stop-opacity:1;"
         offset="0"
         id="stop3177" />
      <stop
         style="stop-color:#c69e00;stop-opacity:1;"
         offset="1"
         id="stop3179" />
    </linearGradient>
    <inkscape:perspective
       sodipodi:type="inkscape:persp3d"
       inkscape:vp_x="0 : 526.18109 : 1"
       inkscape:vp_y="0 : 1000 : 0"
       inkscape:vp_z="744.09448 : 526.18109 : 1"
       inkscape:persp3d-origin="372.04724 : 350.78739 : 1"
       id="perspective10" />
    <filter
       inkscape:collect="always"
       id="filter3239">
      <feGaussianBlur
         inkscape:collect="always"
         stdDeviation="18.447267"
         id="feGaussianBlur3241" />
    </filter>
  </defs>
  <sodipodi:namedview
     id="base"
     pagecolor="#ffffff"
     bordercolor="#666666"
     borderopacity="1.0"
     gridtolerance="10000"
     guidetolerance="10"
     objecttolerance="10"
     inkscape:pageopacity="0.0"
     inkscape:pageshadow="2"
     inkscape:zoom="0.24748737"
     inkscape:cx="931.66212"
     inkscape:cy="427.16645"
     inkscape:document-units="px"
     inkscape:current-layer="layer1"
     showgrid="false"
     inkscape:window-width="1280"
     inkscape:window-height="710"
     inkscape:window-x="0"
     inkscape:window-y="27"
     inkscape:window-maximized="0" />
  <g
     inkscape:label="Layer 1"
     inkscape:groupmode="layer"
     id="layer1"
     transform="translate(-705.71429,-366.64789)">
    <path
       style="fill:#000000;fill-opacity:1;fill-rule:nonzero;stroke:#000000;stroke-width:10;stroke-linecap:round;stroke-linejoin:round;stroke-miterlimit:4;stroke-opacity:1;"
       d="M 1201.625,423.375 C 1063.7513,425.12336 946.36947,512.30195 899.96875,634.375 L 779.78125,634.375 L 743.6875,731.5 L 879.25,731.5 C 878.88937,737.78786 878.71875,744.12233 878.71875,750.5 C 878.71875,761.93552 879.29076,773.24083 880.4375,784.375 L 779.78125,784.375 L 743.6875,881.5 L 906.0625,881.5 C 956.60452,996.93115 1071.837,1077.6562 1205.8438,1077.6562 C 1254.0298,1077.6562 1299.7957,1067.2339 1341,1048.5 L 1253.4375,960.9375 C 1238.1217,964.39138 1222.1979,966.21875 1205.8438,966.21875 C 1136.03,966.21875 1073.958,932.9861 1034.5312,881.5 L 1158.2188,881.5 L 1194.3125,784.375 L 992.8125,784.375 C 991.07,773.3388 990.15625,762.02361 990.15625,750.5 C 990.15625,744.09513 990.45249,737.76353 991,731.5 L 1158.2188,731.5 L 1194.3125,634.375 L 1024.0938,634.375 C 1062.4316,574.49571 1129.5119,534.78125 1205.8438,534.78125 C 1234.8399,534.78125 1262.4856,540.5474 1287.75,550.9375 L 1343.8125,453.875 C 1301.8767,434.32484 1255.1372,423.375 1205.8438,423.375 C 1204.4329,423.375 1203.0316,423.35716 1201.625,423.375 z"
       id="path2390" />
  </g>
  <metadata
     id="metadata3467">
    <rdf:RDF>
      <cc:Work>
        <dc:format>image/svg+xml</dc:format>
        <dc:type
           rdf:resource="http://purl.org/dc/dcmitype/StillImage" />
        <cc:license
           rdf:resource="http://creativecommons.org/licenses/publicdomain/" />
        <dc:publisher>
          <cc:Agent
             rdf:about="http://openclipart.org/">
            <dc:title>Open Clip Art Library</dc:title>
          </cc:Agent>
        </dc:publisher>
        <dc:title></dc:title>
        <dc:date>2009-07-28T09:02:19</dc:date>
        <dc:description />
        <dc:source>http://openclipart.org/detail/27389/euro-by-ernes-27389</dc:source>
        <dc:creator>
          <cc:Agent>
            <dc:title>ernes</dc:title>
          </cc:Agent>
        </dc:creator>
        <dc:subject>
          <rdf:Bag>
            <rdf:li>clip art</rdf:li>
            <rdf:li>clipart</rdf:li>
            <rdf:li>image</rdf:li>
            <rdf:li>media</rdf:li>
            <rdf:li>png</rdf:li>
            <rdf:li>public domain</rdf:li>
            <rdf:li>sign</rdf:li>
            <rdf:li>sign</rdf:li>
            <rdf:li>svg</rdf:li>
          </rdf:Bag>
        </dc:subject>
      </cc:Work>
      <cc:License
         rdf:about="http://creativecommons.org/licenses/publicdomain/">
        <cc:permits
           rdf:resource="http://creativecommons.org/ns#Reproduction" />
        <cc:permits
           rdf:resource="http://creativecommons.org/ns#Distribution" />
        <cc:permits
           rdf:resource="http://creativecommons.org/ns#DerivativeWorks" />
      </cc:License>
    </rdf:RDF>
  </metadata>
</svg>
