<?xml version="1.0" encoding="UTF-8" standalone="no"?>
<!-- Created with Inkscape (http://www.inkscape.org/) -->

<svg
   xmlns:dc="http://purl.org/dc/elements/1.1/"
   xmlns:cc="http://creativecommons.org/ns#"
   xmlns:rdf="http://www.w3.org/1999/02/22-rdf-syntax-ns#"
   xmlns:svg="http://www.w3.org/2000/svg"
   xmlns="http://www.w3.org/2000/svg"
   xmlns:sodipodi="http://sodipodi.sourceforge.net/DTD/sodipodi-0.dtd"
   xmlns:inkscape="http://www.inkscape.org/namespaces/inkscape"
   id="svg2613"
   sodipodi:version="0.32"
   inkscape:version="0.48.3.1 r9886"
   width="297.2532"
   height="230.8755"
   version="1.0"
   sodipodi:docname="scott_kirkwood_scales.svg"
   inkscape:output_extension="org.inkscape.output.svg.inkscape">
  <defs
     id="defs2616">
    <inkscape:perspective
       sodipodi:type="inkscape:persp3d"
       inkscape:vp_x="0 : 526.18109 : 1"
       inkscape:vp_y="0 : 1000 : 0"
       inkscape:vp_z="744.09448 : 526.18109 : 1"
       inkscape:persp3d-origin="372.04724 : 350.78739 : 1"
       id="perspective2620" />
    <clipPath
       clipPathUnits="userSpaceOnUse"
       id="clipPath3453">
      <rect
         style="opacity:1;fill:none;fill-opacity:1;stroke:#ff0000;stroke-width:8.60000038;stroke-linecap:round;stroke-linejoin:round;stroke-miterlimit:4;stroke-dasharray:none;stroke-opacity:1"
         id="rect3455"
         width="103.7037"
         height="58.074074"
         x="-129.18518"
         y="43.592594" />
    </clipPath>
  </defs>
  <sodipodi:namedview
     inkscape:window-height="712"
     inkscape:window-width="1280"
     inkscape:pageshadow="2"
     inkscape:pageopacity="0.0"
     guidetolerance="10.0"
     gridtolerance="10.0"
     objecttolerance="10.0"
     borderopacity="1.0"
     bordercolor="#666666"
     pagecolor="#ffffff"
     id="base"
     showgrid="false"
     inkscape:zoom="1.6875"
     inkscape:cx="137.97776"
     inkscape:cy="144.21595"
     inkscape:window-x="0"
     inkscape:window-y="27"
     inkscape:current-layer="svg2613"
     inkscape:object-nodes="true"
     inkscape:window-maximized="0" />
  <g
     inkscape:groupmode="layer"
     id="layer2"
     inkscape:label="drawing#1"
     transform="translate(-11.43854,-7.346719)">
    <path
       style="fill:none;fill-opacity:0.75000000000000000;fill-rule:evenodd;stroke:#1a1a1a;stroke-width:10;stroke-linecap:round;stroke-linejoin:miter;stroke-miterlimit:4;stroke-dasharray:none;stroke-opacity:1"
       d="M 56.888889,77.37037 C 56.691358,77.37037 56.493827,77.37037 56.888889,77.37037 z"
       id="path2626" />
    <path
       style="fill:none;fill-opacity:0.75000000000000000;fill-rule:evenodd;stroke:#000000;stroke-width:10;stroke-linecap:round;stroke-linejoin:miter;stroke-miterlimit:4;stroke-dasharray:none;stroke-opacity:1"
       d="M 144.59259,53.074074 L 57.481481,76.185185"
       id="path2628" />
    <path
       sodipodi:type="arc"
       style="opacity:1;fill:none;fill-opacity:1;stroke:#000000;stroke-width:10;stroke-linecap:round;stroke-miterlimit:4;stroke-dasharray:none;stroke-opacity:1"
       id="path3400"
       sodipodi:cx="158.81482"
       sodipodi:cy="51.296295"
       sodipodi:rx="14.222222"
       sodipodi:ry="14.222222"
       d="m 173.03704,51.296295 c 0,7.854717 -6.3675,14.222222 -14.22222,14.222222 -7.85472,0 -14.22222,-6.367505 -14.22222,-14.222222 0,-7.854716 6.3675,-14.222222 14.22222,-14.222222 7.85472,0 14.22222,6.367506 14.22222,14.222222 z"
       transform="translate(1.1851852,-4.7407407)" />
    <path
       id="path3402"
       d="M 263.11111,20.481481 L 176,43.592592"
       style="fill:none;fill-opacity:0.75000000000000000;fill-rule:evenodd;stroke:#000000;stroke-width:10;stroke-linecap:round;stroke-linejoin:miter;stroke-miterlimit:4;stroke-dasharray:none;stroke-opacity:1" />
    <path
       style="fill:#ff0000;fill-opacity:1;fill-rule:evenodd;stroke:#000000;stroke-width:10;stroke-linecap:butt;stroke-linejoin:miter;stroke-miterlimit:4;stroke-dasharray:none;stroke-opacity:1"
       d="M 156.7013,34.235665 L 149.07649,12.653224"
       id="path3406" />
    <path
       style="fill-opacity:0.75000000000000000;fill-rule:evenodd;stroke:#000000;stroke-width:10;stroke-linecap:butt;stroke-linejoin:miter;stroke-miterlimit:4;stroke-dasharray:none;stroke-opacity:1"
       d="M 160.59259,59 L 160,233.22222"
       id="path3410"
       sodipodi:nodetypes="cc" />
    <path
       sodipodi:nodetypes="cc"
       id="path3412"
       d="M 30.017269,230.64689 L 291.16791,231.0568"
       style="fill-opacity:0.75000000000000000;fill-rule:evenodd;stroke:#000000;stroke-width:10.18267821999999967;stroke-linecap:butt;stroke-linejoin:miter;stroke-miterlimit:4;stroke-dasharray:none;stroke-opacity:1" />
  </g>
  <path
     style="fill:none;fill-opacity:1;fill-rule:evenodd;stroke:#000000;stroke-width:8.6;stroke-linecap:round;stroke-linejoin:round;stroke-miterlimit:4;stroke-dasharray:none;stroke-opacity:1"
     d="M 13.450349,150.02365 L 46.042941,68.838466 L 79.820719,152.39402"
     id="path3434" />
  <path
     id="path3438"
     d="M 219.07998,94.319951 L 251.67257,13.134762 L 285.45035,96.690321"
     style="fill:none;fill-opacity:1;fill-rule:evenodd;stroke:#000000;stroke-width:8.6;stroke-linecap:round;stroke-linejoin:round;stroke-miterlimit:4;stroke-dasharray:none;stroke-opacity:1" />
  <path
     id="path3440"
     style="fill:#000000;fill-opacity:1;stroke:#000000;stroke-width:8.59999999999999787;stroke-linecap:round;stroke-linejoin:round;stroke-miterlimit:4;stroke-opacity:1;stroke-dasharray:none"
     d="M -33.978636,48.925914 C -33.978636,69.678237 -52.708656,86.520713 -75.786714,86.520713 C -98.864773,86.520713 -117.59479,69.678237 -117.59479,48.925914 C -117.59479,28.173591 -98.864773,11.331128 -75.786714,11.331128 C -52.708656,11.331128 -33.978636,28.173591 -33.978636,48.925914 z M -33.978641,44.925924 L -117.59479,44.925924"
     sodipodi:nodetypes="csssccc"
     clip-path="url(#clipPath3453)"
     transform="translate(121.89479,97.542171)" />
  <path
     transform="translate(326.93183,45.394023)"
     clip-path="url(#clipPath3453)"
     sodipodi:nodetypes="csssccc"
     d="M -33.978636,48.925914 C -33.978636,69.678237 -52.708656,86.520713 -75.786714,86.520713 C -98.864773,86.520713 -117.59479,69.678237 -117.59479,48.925914 C -117.59479,28.173591 -98.864773,11.331128 -75.786714,11.331128 C -52.708656,11.331128 -33.978636,28.173591 -33.978636,48.925914 z M -33.978641,44.925924 L -117.59479,44.925924"
     style="fill:#000000;fill-opacity:1;stroke:#000000;stroke-width:8.59999999999999787;stroke-linecap:round;stroke-linejoin:round;stroke-miterlimit:4;stroke-opacity:1;stroke-dasharray:none"
     id="path3457" />
  <metadata
     id="metadata3789">
    <rdf:RDF>
      <cc:Work>
        <dc:format>image/svg+xml</dc:format>
        <dc:type
           rdf:resource="http://purl.org/dc/dcmitype/StillImage" />
        <cc:license
           rdf:resource="http://creativecommons.org/licenses/publicdomain/" />
        <dc:publisher>
          <cc:Agent
             rdf:about="http://openclipart.org/">
            <dc:title>Open Clip Art Library</dc:title>
          </cc:Agent>
        </dc:publisher>
        <dc:title>scales</dc:title>
        <dc:date>2009-04-05T13:17:50</dc:date>
        <dc:description>Scales like you'd use to weigh something.  Left side is down further than the right.</dc:description>
        <dc:source>http://openclipart.org/detail/24101/scales-by-scott_kirkwood</dc:source>
        <dc:creator>
          <cc:Agent>
            <dc:title>scott_kirkwood</dc:title>
          </cc:Agent>
        </dc:creator>
        <dc:subject>
          <rdf:Bag>
            <rdf:li>balance</rdf:li>
            <rdf:li>balance</rdf:li>
            <rdf:li>clip art</rdf:li>
            <rdf:li>clipart</rdf:li>
            <rdf:li>image</rdf:li>
            <rdf:li>media</rdf:li>
            <rdf:li>public domain</rdf:li>
            <rdf:li>scale</rdf:li>
            <rdf:li>scale</rdf:li>
            <rdf:li>silhouette</rdf:li>
            <rdf:li>silhouette</rdf:li>
            <rdf:li>svg</rdf:li>
          </rdf:Bag>
        </dc:subject>
      </cc:Work>
      <cc:License
         rdf:about="http://creativecommons.org/licenses/publicdomain/">
        <cc:permits
           rdf:resource="http://creativecommons.org/ns#Reproduction" />
        <cc:permits
           rdf:resource="http://creativecommons.org/ns#Distribution" />
        <cc:permits
           rdf:resource="http://creativecommons.org/ns#DerivativeWorks" />
      </cc:License>
    </rdf:RDF>
  </metadata>
</svg>
