            {"backgroundcolor":"#BACA42",
             "value":"{{hs_year.surface_total|floatformat:"2"}}"},
            {"backgroundcolor":"#{{harvestsetting.harvest.category.color}}",
             "value":"{{hs_year.forage_yield_total|floatformat:"0"}}"},
            {"backgroundcolor":"#{{harvestsetting.harvest.category.color}}",
             "value":"{{hs_year.grain_yield_total|floatformat:"0"}}"},
            {"backgroundcolor":"#{{harvestsetting.harvest.category.color}}",
             "value":"{{hs_year.straw_yield_total|floatformat:"0"}}"}
